2x2/bilg org/odev3/q2/test_tb.vcd
$date
	Tue Apr 30 22:46:28 2024
$end
$version
	Icarus Verilog
$end
$timescale
	1s
$end
$scope module testbench $end
$var wire 32 ! writedata [31:0] $end
$var wire 1 " memwrite $end
$var wire 32 # dataadr [31:0] $end
$var reg 1 $ clk $end
$var reg 1 % reset $end
$scope module dut $end
$var wire 1 $ clk $end
$var wire 1 % reset $end
$var wire 32 & writedata [31:0] $end
$var wire 32 ' readdata [31:0] $end
$var wire 32 ( pc [31:0] $end
$var wire 1 " memwrite $end
$var wire 32 ) instr [31:0] $end
$var wire 32 * dataadr [31:0] $end
$scope module dmem $end
$var wire 1 $ clk $end
$var wire 32 + rd [31:0] $end
$var wire 1 " we $end
$var wire 32 , wd [31:0] $end
$var wire 32 - a [31:0] $end
$upscope $end
$scope module imem $end
$var wire 6 . a [5:0] $end
$var wire 32 / rd [31:0] $end
$upscope $end
$scope module riscv $end
$var wire 1 $ clk $end
$var wire 32 0 instr [31:0] $end
$var wire 32 1 readdata [31:0] $end
$var wire 1 % reset $end
$var wire 1 2 zero $end
$var wire 32 3 writedata [31:0] $end
$var wire 2 4 resultsrc [1:0] $end
$var wire 1 5 regwrite $end
$var wire 1 6 pcsrc $end
$var wire 32 7 pc [31:0] $end
$var wire 1 " memwrite $end
$var wire 1 8 jump $end
$var wire 2 9 immsrc [1:0] $end
$var wire 1 : branch $end
$var wire 1 ; alusrc $end
$var wire 32 < aluout [31:0] $end
$var wire 2 = aluop [1:0] $end
$var wire 3 > alucontrol [2:0] $end
$scope module c $end
$var wire 3 ? funct3 [2:0] $end
$var wire 1 @ funct7 $end
$var wire 7 A op [6:0] $end
$var wire 1 6 pcsrc $end
$var wire 1 2 zero $end
$var wire 2 B resultsrc [1:0] $end
$var wire 1 5 regwrite $end
$var wire 1 " memwrite $end
$var wire 1 8 jump $end
$var wire 2 C immsrc [1:0] $end
$var wire 1 : branch $end
$var wire 1 ; alusrc $end
$var wire 2 D aluop [1:0] $end
$var wire 3 E alucontrol [2:0] $end
$scope module ad $end
$var wire 3 F funct3 [2:0] $end
$var wire 1 @ funct7 $end
$var wire 1 G op5 $end
$var wire 2 H aluop [1:0] $end
$var reg 3 I alucontrol [2:0] $end
$upscope $end
$scope module md $end
$var wire 7 J op [6:0] $end
$var wire 2 K resultsrc [1:0] $end
$var wire 1 5 regwrite $end
$var wire 1 " memwrite $end
$var wire 1 8 jump $end
$var wire 2 L immsrc [1:0] $end
$var wire 1 : branch $end
$var wire 1 ; alusrc $end
$var wire 2 M aluop [1:0] $end
$var reg 11 N controls [10:0] $end
$upscope $end
$upscope $end
$scope module dp $end
$var wire 3 O alucontrol [2:0] $end
$var wire 1 ; alusrc $end
$var wire 1 $ clk $end
$var wire 2 P immsrc [1:0] $end
$var wire 32 Q instr [31:0] $end
$var wire 1 8 jump $end
$var wire 1 R memtoreg $end
$var wire 1 6 pcsrc $end
$var wire 32 S readdata [31:0] $end
$var wire 1 T regdst $end
$var wire 1 5 regwrite $end
$var wire 1 % reset $end
$var wire 2 U resultsrc [1:0] $end
$var wire 1 2 zero $end
$var wire 32 V writedata [31:0] $end
$var wire 32 W srcb [31:0] $end
$var wire 32 X srca [31:0] $end
$var wire 32 Y signimm [31:0] $end
$var wire 32 Z result [31:0] $end
$var wire 32 [ pctarget [31:0] $end
$var wire 32 \ pcplus4 [31:0] $end
$var wire 32 ] pcnext [31:0] $end
$var wire 32 ^ pc [31:0] $end
$var wire 32 _ aluout [31:0] $end
$scope module alu $end
$var wire 3 ` alucont [2:0] $end
$var wire 1 2 zero $end
$var wire 32 a sum [31:0] $end
$var wire 32 b srl [31:0] $end
$var wire 32 c sra [31:0] $end
$var wire 32 d slt [31:0] $end
$var wire 32 e b2 [31:0] $end
$var wire 32 f b [31:0] $end
$var wire 32 g a [31:0] $end
$var reg 32 h result [31:0] $end
$upscope $end
$scope module pcadd1 $end
$var wire 32 i b [31:0] $end
$var wire 32 j y [31:0] $end
$var wire 32 k a [31:0] $end
$upscope $end
$scope module pcadd2 $end
$var wire 32 l y [31:0] $end
$var wire 32 m b [31:0] $end
$var wire 32 n a [31:0] $end
$upscope $end
$scope module pcbrmux $end
$var wire 32 o d0 [31:0] $end
$var wire 32 p d1 [31:0] $end
$var wire 1 6 s $end
$var wire 32 q y [31:0] $end
$var parameter 32 r WIDTH $end
$upscope $end
$scope module pcreg $end
$var wire 1 $ clk $end
$var wire 32 s d [31:0] $end
$var wire 1 % reset $end
$var parameter 32 t WIDTH $end
$var reg 32 u q [31:0] $end
$upscope $end
$scope module resmux $end
$var wire 32 v d0 [31:0] $end
$var wire 32 w d1 [31:0] $end
$var wire 32 x d2 [31:0] $end
$var wire 32 y d3 [31:0] $end
$var wire 2 z s [1:0] $end
$var parameter 32 { WIDTH $end
$var reg 32 | y [31:0] $end
$upscope $end
$scope module rf $end
$var wire 1 $ clk $end
$var wire 5 } ra1 [4:0] $end
$var wire 5 ~ ra2 [4:0] $end
$var wire 5 !" wa3 [4:0] $end
$var wire 32 "" wd3 [31:0] $end
$var wire 1 5 we3 $end
$var wire 32 #" rd2 [31:0] $end
$var wire 32 $" rd1 [31:0] $end
$upscope $end
$scope module se $end
$var wire 32 %" a [31:0] $end
$var wire 2 &" immsrc [1:0] $end
$var reg 32 '" y [31:0] $end
$upscope $end
$scope module srcbmux $end
$var wire 32 (" d0 [31:0] $end
$var wire 32 )" d1 [31:0] $end
$var wire 1 ; s $end
$var wire 32 *" y [31:0] $end
$var parameter 32 +" WIDTH $end
$upscope $end
$upscope $end
$upscope $end
$upscope $end
$upscope $end
$enddefinitions $end
$comment Show the parameter values. $end
$dumpall
b100000 +"
b100000 {
b100000 t
b100000 r
$end
#0
$dumpvars
b101 *"
b101 )"
bx ("
b101 '"
b0 &"
b10100000000000100010011 %"
b0 $"
bx #"
b101 ""
b10 !"
b101 ~
b0 }
b101 |
b0 z
b0 y
b100 x
bx w
b101 v
b0 u
b100 s
b100 q
b101 p
b100 o
b0 n
b101 m
b101 l
b0 k
b100 j
b100 i
b101 h
b0 g
b101 f
b101 e
b0 d
b0 c
b0 b
b101 a
b0 `
b101 _
b0 ^
b100 ]
b100 \
b101 [
b101 Z
b101 Y
b0 X
b101 W
bx V
b0 U
zT
bx S
zR
b10100000000000100010011 Q
b0 P
b0 O
b10010000100 N
b10 M
b0 L
b0 K
b10011 J
b0 I
b10 H
0G
b0 F
b0 E
b10 D
b0 C
b0 B
b10011 A
0@
b0 ?
b0 >
b10 =
b101 <
1;
0:
b0 9
08
b0 7
06
15
b0 4
bx 3
02
bx 1
b10100000000000100010011 0
b10100000000000100010011 /
b0 .
b101 -
bx ,
bx +
b101 *
b10100000000000100010011 )
b0 (
bx '
bx &
1%
1$
b101 #
0"
bx !
$end
#5
0$
#10
1$
#15
0$
#20
1$
#22
0%
#25
0$
#30
b1100 Z
b1100 |
b1100 ""
b1100 #
b1100 *
b1100 -
b1100 <
b1100 _
b1100 h
b1100 v
b1100 a
b1100 e
b1100 W
b1100 f
b1100 *"
b1100 Y
b1100 m
b1100 '"
b1100 )"
b1100 ~
b11 !"
b1000 ]
b1000 q
b1000 s
b110000000000000110010011 )
b110000000000000110010011 /
b110000000000000110010011 0
b110000000000000110010011 Q
b110000000000000110010011 %"
b1 .
b10000 [
b10000 l
b10000 p
b1000 \
b1000 j
b1000 o
b1000 x
b100 (
b100 7
b100 ^
b100 k
b100 n
b100 u
1$
#35
0$
#40
b11 Z
b11 |
b11 ""
b11111111111111111111111111110111 e
b11111111111111111111111111110111 W
b11111111111111111111111111110111 f
b11111111111111111111111111110111 *"
b11 #
b11 *
b11 -
b11 <
b11 _
b11 h
b11 v
b11111111111111111111111111110111 Y
b11111111111111111111111111110111 m
b11111111111111111111111111110111 '"
b11111111111111111111111111110111 )"
b11 a
b1100 X
b1100 g
b1100 $"
1@
b11 }
b10111 ~
b111 !"
b1100 ]
b1100 q
b1100 s
b11111111011100011000001110010011 )
b11111111011100011000001110010011 /
b11111111011100011000001110010011 0
b11111111011100011000001110010011 Q
b11111111011100011000001110010011 %"
b10 .
b11111111111111111111111111111111 [
b11111111111111111111111111111111 l
b11111111111111111111111111111111 p
b1100 \
b1100 j
b1100 o
b1100 x
b1000 (
b1000 7
b1000 ^
b1000 k
b1000 n
b1000 u
1$
#45
0$
#50
b111 Z
b111 |
b111 ""
b11111111111111111111111111111010 e
bx 9
bx C
bx L
bx P
bx &"
0;
b101 W
b101 f
b101 *"
b111 #
b111 *
b111 -
b111 <
b111 _
b111 h
b111 v
b1xx00000100 N
b11 >
b11 E
b11 I
b11 O
b11 `
b0 Y
b0 m
b0 '"
b0 )"
b1 d
1G
b11111111111111111111111111111110 a
b11 X
b11 g
b11 $"
b101 !
b101 &
b101 ,
b101 3
b101 V
b101 #"
b101 ("
b110011 A
b110011 J
b110 ?
b110 F
0@
b111 }
b10 ~
b100 !"
b10000 ]
b10000 q
b10000 s
b1000111110001000110011 )
b1000111110001000110011 /
b1000111110001000110011 0
b1000111110001000110011 Q
b1000111110001000110011 %"
b11 .
b1100 [
b1100 l
b1100 p
b10000 \
b10000 j
b10000 o
b10000 x
b1100 (
b1100 7
b1100 ^
b1100 k
b1100 n
b1100 u
1$
#55
0$
#60
b100 Z
b100 |
b100 ""
b100 #
b100 *
b100 -
b100 <
b100 _
b100 h
b100 v
b10 >
b10 E
b10 I
b10 O
b10 `
b111 e
b0 d
b111 W
b111 f
b111 *"
b10011 a
b1100 X
b1100 g
b1100 $"
b111 !
b111 &
b111 ,
b111 3
b111 V
b111 #"
b111 ("
b111 ?
b111 F
b11 }
b100 ~
b101 !"
b10100 ]
b10100 q
b10100 s
b10000011111001010110011 )
b10000011111001010110011 /
b10000011111001010110011 0
b10000011111001010110011 Q
b10000011111001010110011 %"
b100 .
b10000 [
b10000 l
b10000 p
b10100 \
b10100 j
b10100 o
b10100 x
b10000 (
b10000 7
b10000 ^
b10000 k
b10000 n
b10000 u
1$
#65
0$
#70
b1011 Z
b1011 |
b1011 ""
b1011 #
b1011 *
b1011 -
b1011 <
b1011 _
b1011 h
b1011 v
b0 >
b0 E
b0 I
b0 O
b0 `
b1011 a
b100 X
b100 g
b100 $"
b0 ?
b0 F
b101 }
b11000 ]
b11000 q
b11000 s
b10000101000001010110011 )
b10000101000001010110011 /
b10000101000001010110011 0
b10000101000001010110011 Q
b10000101000001010110011 %"
b101 .
b10100 [
b10100 l
b10100 p
b11000 \
b11000 j
b11000 o
b11000 x
b10100 (
b10100 7
b10100 ^
b10100 k
b10100 n
b10100 u
1$
#75
0$
#80
b101100 Y
b101100 m
b101100 '"
b101100 )"
b1 >
b1 E
b1 I
b1 O
b1 `
b0 Z
b0 |
b0 ""
05
b10 9
b10 C
b10 L
b10 P
b10 &"
bx 4
bx B
bx K
bx U
bx z
1:
b1 =
b1 D
b1 H
b1 M
b1000xx1010 N
b1000 #
b1000 *
b1000 -
b1000 <
b1000 _
b1000 h
b1000 v
b11111111111111111111111111111100 e
b1 b
b1 c
b11 W
b11 f
b11 *"
b11 !
b11 &
b11 ,
b11 3
b11 V
b11 #"
b11 ("
b1100011 A
b1100011 J
b111 ~
b1100 !"
b1000 a
b1011 X
b1011 g
b1011 $"
b11100 ]
b11100 q
b11100 s
b10011100101000011001100011 )
b10011100101000011001100011 /
b10011100101000011001100011 0
b10011100101000011001100011 Q
b10011100101000011001100011 %"
b110 .
b1000100 [
b1000100 l
b1000100 p
b11100 \
b11100 j
b11100 o
b11100 x
b11000 (
b11000 7
b11000 ^
b11000 k
b11000 n
b11000 u
1$
#85
0$
#90
12
b101 >
b101 E
b101 I
b101 O
b101 `
b0 Z
b0 |
b0 ""
15
bx 9
bx C
bx L
bx P
bx &"
b0 4
b0 B
b0 K
b0 U
b0 z
0:
b10 =
b10 D
b10 H
b10 M
b0 #
b0 *
b0 -
b0 <
b0 _
b0 h
b0 v
b1xx00000100 N
b0 Y
b0 m
b0 '"
b0 )"
b11111111111111111111111111111000 e
b0 b
b0 c
b111 W
b111 f
b111 *"
b101 a
b1100 X
b1100 g
b1100 $"
b111 !
b111 &
b111 ,
b111 3
b111 V
b111 #"
b111 ("
b110011 A
b110011 J
b10 ?
b10 F
b11 }
b100 ~
b100 !"
b100000 ]
b100000 q
b100000 s
b10000011010001000110011 )
b10000011010001000110011 /
b10000011010001000110011 0
b10000011010001000110011 Q
b10000011010001000110011 %"
b111 .
b11100 [
b11100 l
b11100 p
b100000 \
b100000 j
b100000 o
b100000 x
b11100 (
b11100 7
b11100 ^
b11100 k
b11100 n
b11100 u
1$
#95
0$
#100
b1000 Y
b1000 m
b1000 '"
b1000 )"
16
05
b10 9
b10 C
b10 L
b10 P
b10 &"
bx 4
bx B
bx K
bx U
bx z
1:
b1 =
b1 D
b1 H
b1 M
12
b0 #
b0 *
b0 -
b0 <
b0 _
b0 h
b0 v
b1000xx1010 N
b1 >
b1 E
b1 I
b1 O
b1 `
b11111111111111111111111111111111 e
b0 d
b0 a
b0 X
b0 g
b0 $"
b0 b
b0 c
b0 W
b0 f
b0 *"
b1100011 A
b1100011 J
b0 ?
b0 F
b100 }
b0 ~
b1000 !"
b0 !
b0 &
b0 ,
b0 3
b0 V
b0 #"
b0 ("
b101000 ]
b101000 q
b101000 s
b100000010001100011 )
b100000010001100011 /
b100000010001100011 0
b100000010001100011 Q
b100000010001100011 %"
b1000 .
b101000 [
b101000 l
b101000 p
b100100 \
b100100 j
b100100 o
b100100 x
b100000 (
b100000 7
b100000 ^
b100000 k
b100000 n
b100000 u
1$
#105
0$
#110
b101 >
b101 E
b101 I
b101 O
b101 `
b1 Z
b1 |
b1 ""
06
15
bx 9
bx C
bx L
bx P
bx &"
b0 4
b0 B
b0 K
b0 U
b0 z
0:
b10 =
b10 D
b10 H
b10 M
02
b1 #
b1 *
b1 -
b1 <
b1 _
b1 h
b1 v
b1xx00000100 N
b0 Y
b0 m
b0 '"
b0 )"
b1 d
b11111111111111111111111111111010 e
b101 W
b101 f
b101 *"
b0 b
b0 c
b11111111111111111111111111111110 a
b11 X
b11 g
b11 $"
b101 !
b101 &
b101 ,
b101 3
b101 V
b101 #"
b101 ("
b110011 A
b110011 J
b10 ?
b10 F
b111 }
b10 ~
b100 !"
b101100 ]
b101100 q
b101100 s
b1000111010001000110011 )
b1000111010001000110011 /
b1000111010001000110011 0
b1000111010001000110011 Q
b1000111010001000110011 %"
b1010 .
b101000 [
b101000 l
b101000 p
b101100 \
b101100 j
b101100 o
b101100 x
b101000 (
b101000 7
b101000 ^
b101000 k
b101000 n
b101000 u
1$
#115
0$
#120
b1100 Z
b1100 |
b1100 ""
b1100 #
b1100 *
b1100 -
b1100 <
b1100 _
b1100 h
b1100 v
b0 d
b0 >
b0 E
b0 I
b0 O
b0 `
b1011 e
b1011 W
b1011 f
b1011 *"
b1100 a
b1 X
b1 g
b1 $"
b1011 !
b1011 &
b1011 ,
b1011 3
b1011 V
b1011 #"
b1011 ("
b0 ?
b0 F
b100 }
b101 ~
b111 !"
b110000 ]
b110000 q
b110000 s
b10100100000001110110011 )
b10100100000001110110011 /
b10100100000001110110011 0
b10100100000001110110011 Q
b10100100000001110110011 %"
b1011 .
b101100 [
b101100 l
b101100 p
b110000 \
b110000 j
b110000 o
b110000 x
b101100 (
b101100 7
b101100 ^
b101100 k
b101100 n
b101100 u
1$
#125
0$
#130
b111 Z
b111 |
b111 ""
b111 #
b111 *
b111 -
b111 <
b111 _
b111 h
b111 v
b1 >
b1 E
b1 I
b1 O
b1 `
b11111111111111111111111111111010 e
b101 W
b101 f
b101 *"
b111 a
b1100 X
b1100 g
b1100 $"
b101 !
b101 &
b101 ,
b101 3
b101 V
b101 #"
b101 ("
1@
b111 }
b10 ~
b110100 ]
b110100 q
b110100 s
b1000000001000111000001110110011 )
b1000000001000111000001110110011 /
b1000000001000111000001110110011 0
b1000000001000111000001110110011 Q
b1000000001000111000001110110011 %"
b1100 .
b110000 [
b110000 l
b110000 p
b110100 \
b110100 j
b110100 o
b110100 x
b110000 (
b110000 7
b110000 ^
b110000 k
b110000 n
b110000 u
1$
#135
0$
#140
b1000100 Y
b1000100 m
b1000100 '"
b1000100 )"
02
b0 Z
b0 |
b0 ""
b0 b
b0 c
05
b1 9
b1 C
b1 L
b1 P
b1 &"
1;
1"
bx 4
bx B
bx K
bx U
bx z
b0 =
b0 D
b0 H
b0 M
b111xx0000 N
b0 >
b0 E
b0 I
b0 O
b0 `
b1010000 #
b1010000 *
b1010000 -
b1010000 <
b1010000 _
b1010000 h
b1010000 v
b1000100 e
b1000100 W
b1000100 f
b1000100 *"
b111 !
b111 &
b111 ,
b111 3
b111 V
b111 #"
b111 ("
b100011 A
b100011 J
b10 ?
b10 F
0@
b11 }
b111 ~
b100 !"
b1010000 a
b1100 X
b1100 g
b1100 $"
b111000 ]
b111000 q
b111000 s
b100011100011010001000100011 )
b100011100011010001000100011 /
b100011100011010001000100011 0
b100011100011010001000100011 Q
b100011100011010001000100011 %"
b1101 .
b1111000 [
b1111000 l
b1111000 p
b111000 \
b111000 j
b111000 o
b111000 x
b110100 (
b110100 7
b110100 ^
b110100 k
b110100 n
b110100 u
1$
#145
0$
#150
b111 Z
b111 |
b111 ""
b1010000 e
15
b0 9
b0 C
b0 L
b0 P
b0 &"
0"
b1 4
b1 B
b1 K
b1 U
b1 z
b1010000 W
b1010000 f
b1010000 *"
b1010000 #
b1010000 *
b1010000 -
b1010000 <
b1010000 _
b1010000 h
b1010000 v
b10010010000 N
b1010000 Y
b1010000 m
b1010000 '"
b1010000 )"
0G
b1010000 a
b0 X
b0 g
b0 $"
bx !
bx &
bx ,
bx 3
bx V
bx #"
bx ("
b11 A
b11 J
b0 }
b10000 ~
b10 !"
b111100 ]
b111100 q
b111100 s
b101000000000010000100000011 )
b101000000000010000100000011 /
b101000000000010000100000011 0
b101000000000010000100000011 Q
b101000000000010000100000011 %"
b1110 .
b111 '
b111 +
b111 1
b111 S
b111 w
b10001000 [
b10001000 l
b10001000 p
b111100 \
b111100 j
b111100 o
b111100 x
b111000 (
b111000 7
b111000 ^
b111000 k
b111000 n
b111000 u
1$
#155
0$
#160
bx '
bx +
bx 1
bx S
bx w
x2
bx #
bx *
bx -
bx <
bx _
bx h
bx v
b1000000 Z
b1000000 |
b1000000 ""
b0x d
bx b
bx c
16
bx a
bx e
b11 9
b11 C
b11 L
b11 P
b11 &"
x;
b10 4
b10 B
b10 K
b10 U
b10 z
bx =
bx D
bx H
bx M
18
bx W
bx f
bx *"
b111x0100xx1 N
b1000 Y
b1000 m
b1000 '"
b1000 )"
1G
b1101111 A
b1101111 J
b0 ?
b0 F
b1000 ~
b0 !"
b1000100 ]
b1000100 q
b1000100 s
b100000000000000001101111 )
b100000000000000001101111 /
b100000000000000001101111 0
b100000000000000001101111 Q
b100000000000000001101111 %"
b1111 .
b1000100 [
b1000100 l
b1000100 p
b1000000 \
b1000000 j
b1000000 o
b1000000 x
b111100 (
b111100 7
b111100 ^
b111100 k
b111100 n
b111100 u
1$
#165
0$
#170
02
b1010100 #
b1010100 *
b1010100 -
b1010100 <
b1010100 _
b1010100 h
b1010100 v
b0 d
b1010100 a
b0 b
b0 c
06
05
b1 9
b1 C
b1 L
b1 P
b1 &"
1;
1"
bx 4
bx B
bx K
bx U
bx z
b0 =
b0 D
b0 H
b0 M
08
b111xx0000 N
b0 >
b0 E
b0 I
b0 O
b0 `
b1010100 Y
b1010100 m
b1010100 '"
b1010100 )"
b0 Z
b0 |
b0 ""
b1010100 e
b1010100 W
b1010100 f
b1010100 *"
b111 !
b111 &
b111 ,
b111 3
b111 V
b111 #"
b111 ("
b100011 A
b100011 J
b10 ?
b10 F
b10 ~
b10100 !"
b1001000 ]
b1001000 q
b1001000 s
b100001000000010101000100011 )
b100001000000010101000100011 /
b100001000000010101000100011 0
b100001000000010101000100011 Q
b100001000000010101000100011 %"
b10001 .
b10011000 [
b10011000 l
b10011000 p
b1001000 \
b1001000 j
b1001000 o
b1001000 x
b1000100 (
b1000100 7
b1000100 ^
b1000100 k
b1000100 n
b1000100 u
1$
#175
0$
#180
b1 #
b1 *
b1 -
b1 <
b1 _
b1 h
b1 v
b1 Z
b1 |
b1 ""
b1 a
b1 e
15
b0 9
b0 C
b0 L
b0 P
b0 &"
0"
b0 4
b0 B
b0 K
b0 U
b0 z
b10 =
b10 D
b10 H
b10 M
b1 W
b1 f
b1 *"
b10010000100 N
b1 Y
b1 m
b1 '"
b1 )"
0G
bx !
bx &
bx ,
bx 3
bx V
bx #"
bx ("
b10011 A
b10011 J
b0 ?
b0 F
b1 ~
b1000 !"
b1001100 ]
b1001100 q
b1001100 s
b100000000010000010011 )
b100000000010000010011 /
b100000000010000010011 0
b100000000010000010011 Q
b100000000010000010011 %"
b10010 .
bx '
bx +
bx 1
bx S
bx w
b1001001 [
b1001001 l
b1001001 p
b1001100 \
b1001100 j
b1001100 o
b1001100 x
b1001000 (
b1001000 7
b1001000 ^
b1001000 k
b1001000 n
b1001000 u
1$
#185
0$
#190
b11 Z
b11 |
b11 ""
02
b0 d
b11111111111111111111111111111110 e
bx 9
bx C
bx L
bx P
bx &"
0;
b1 W
b1 f
b1 *"
b11 #
b11 *
b11 -
b11 <
b11 _
b11 h
b11 v
b1xx00000100 N
b111 >
b111 E
b111 I
b111 O
b111 `
b0 Y
b0 m
b0 '"
b0 )"
1G
b11 b
b11 c
b110 a
b111 X
b111 g
b111 $"
b1 !
b1 &
b1 ,
b1 3
b1 V
b1 #"
b1 ("
b110011 A
b110011 J
b101 ?
b101 F
1@
b10 }
b1000 ~
b10 !"
b1010000 ]
b1010000 q
b1010000 s
b1000000100000010101000100110011 )
b1000000100000010101000100110011 /
b1000000100000010101000100110011 0
b1000000100000010101000100110011 Q
b1000000100000010101000100110011 %"
b10011 .
b1001100 [
b1001100 l
b1001100 p
b1010000 \
b1010000 j
b1010000 o
b1010000 x
b1001100 (
b1001100 7
b1001100 ^
b1001100 k
b1001100 n
b1001100 u
1$
#195
0$
#200
b1 Z
b1 |
b1 ""
b1 e
b110 >
b110 E
b110 I
b110 O
b110 `
b1 #
b1 *
b1 -
b1 <
b1 _
b1 h
b1 v
0@
b1 b
b1 c
b100 a
b11 X
b11 g
b11 $"
b1010100 ]
b1010100 q
b1010100 s
b100000010101000100110011 )
b100000010101000100110011 /
b100000010101000100110011 0
b100000010101000100110011 Q
b100000010101000100110011 %"
b10100 .
b1010000 [
b1010000 l
b1010000 p
b1010100 \
b1010100 j
b1010100 o
b1010100 x
b1010000 (
b1010000 7
b1010000 ^
b1010000 k
b1010000 n
b1010000 u
1$
#205
0$
#210
b1011100 Y
b1011100 m
b1011100 '"
b1011100 )"
b0 Z
b0 |
b0 ""
b0 d
b1011100 W
b1011100 f
b1011100 *"
b1011100 e
05
b1 9
b1 C
b1 L
b1 P
b1 &"
1;
1"
bx 4
bx B
bx K
bx U
bx z
b0 =
b0 D
b0 H
b0 M
b111xx0000 N
b0 >
b0 E
b0 I
b0 O
b0 `
02
b1011100 #
b1011100 *
b1011100 -
b1011100 <
b1011100 _
b1011100 h
b1011100 v
b100011 A
b100011 J
b10 ?
b10 F
b0 }
b10 ~
b11100 !"
b0 b
b0 c
b1011100 a
b0 X
b0 g
b0 $"
b1011000 ]
b1011000 q
b1011000 s
b100001000000010111000100011 )
b100001000000010111000100011 /
b100001000000010111000100011 0
b100001000000010111000100011 Q
b100001000000010111000100011 %"
b10101 .
b10110000 [
b10110000 l
b10110000 p
b1011000 \
b1011000 j
b1011000 o
b1011000 x
b1010100 (
b1010100 7
b1010100 ^
b1010100 k
b1010100 n
b1010100 u
1$
